{
    "code": "Ok",
    "routes": [
      {
        "legs": [
          {
            "steps": [],
            "summary": "",
            "weight": 263,
            "duration": 260.1,
            "distance": 1886.3
          },
          {
            "steps": [],
            "summary": "",
            "weight": 370.6,
            "duration": 370.6,
            "distance": 2845.5
          }
        ],
        "weight_name": "routability",
        "weight": 633.6,
        "duration": 630.7,
        "distance": 4731.8
      }
    ],
    "waypoints": [
      {
        "hint": "mf4JgBzEmoUXAAAABQAAAAAAAAAgAAAAIXRPQYXNK0AAAAAAcPePQQsAAAADAAAAAAAAABAAAACv_AAA_kvMAKlYIQM8TMwArVghAwAA7wptjtfi",
        "distance": 4.231521214,
        "name": "Friedrichstraße",
        "location": [
          13.388798,
          52.517033
        ]
      },
      {
        "hint": "LGLdgZfsiocGAAAACQAAAAAAAAB3AAAAppONQCyhu0AAAAAA1J-EQgYAAAAJAAAAAAAAAHcAAACv_AAAfm7MABiJIQOCbswA_4ghAwAAXwVtjtfi",
        "distance": 2.795148358,
        "name": "Torstraße",
        "location": [
          13.39763,
          52.529432
        ]
      },
      {
        "hint": "GigYgP___38fAAAAUQAAACYAAAAeAAAAeosKQlNOX0IQ7CZCjsMGQh8AAABRAAAAJgAAAB4AAACv_AAASufMAOdwIQNL58wA03AhAwQAvxBtjtfi",
        "distance": 2.226580806,
        "name": "Platz der Vereinten Nationen",
        "location": [
          13.428554,
          52.523239
        ]
      }
    ]
  }